<svg width="66" height="66" viewBox="0 0 66 66" fill="none" xmlns="http://www.w3.org/2000/svg">
<g filter="url(#filter0_d)">
<rect x="8" y="6" width="50" height="50" rx="15" fill="#378B35"/>
</g>
<path fill-rule="evenodd" clip-rule="evenodd" d="M35.24 28.0833H32.9067V24.5833H29.4067V22.25H32.9067V18.75H35.24V22.25H38.74V24.5833H35.24V28.0833ZM25.9183 40.9167C25.9183 39.6333 26.9566 38.5833 28.24 38.5833C29.5233 38.5833 30.5733 39.6333 30.5733 40.9167C30.5733 42.2 29.5233 43.25 28.24 43.25C26.9566 43.25 25.9183 42.2 25.9183 40.9167ZM39.9066 38.5833C38.6233 38.5833 37.585 39.6333 37.585 40.9167C37.585 42.2 38.6233 43.25 39.9066 43.25C41.19 43.25 42.24 42.2 42.24 40.9167C42.24 39.6333 41.19 38.5833 39.9066 38.5833ZM38.215 32.75H29.5233L28.24 35.0833H42.24V37.4167H24.2967L27.7733 31.105L23.5733 22.25H21.24V19.9167H25.055L30.025 30.4167H38.215L42.73 22.25L44.76 23.37L40.2567 31.5483C39.86 32.2717 39.09 32.75 38.215 32.75Z" fill="white"/>
<defs>
<filter id="filter0_d" x="0" y="0" width="66" height="66" filterUnits="userSpaceOnUse" color-interpolation-filters="sRGB">
<feFlood flood-opacity="0" result="BackgroundImageFix"/>
<feColorMatrix in="SourceAlpha" type="matrix" values="0 0 0 0 0 0 0 0 0 0 0 0 0 0 0 0 0 0 127 0"/>
<feOffset dy="2"/>
<feGaussianBlur stdDeviation="4"/>
<feColorMatrix type="matrix" values="0 0 0 0 0 0 0 0 0 0 0 0 0 0 0 0 0 0 0.25 0"/>
<feBlend mode="normal" in2="BackgroundImageFix" result="effect1_dropShadow"/>
<feBlend mode="normal" in="SourceGraphic" in2="effect1_dropShadow" result="shape"/>
</filter>
</defs>
</svg>
