<svg width="24" height="13" viewBox="0 0 24 13" fill="none" xmlns="http://www.w3.org/2000/svg">
<path fill-rule="evenodd" clip-rule="evenodd" d="M12.0001 0.0858154L23.2072 11.2929L21.793 12.7071L12.0001 2.91424L2.20718 12.7071L0.792969 11.2929L12.0001 0.0858154Z" fill="#497ECD"/>
</svg>
