<svg width="16" height="16" viewBox="0 0 16 16" fill="none" xmlns="http://www.w3.org/2000/svg">
<g id="icon/maps/place_24px">
<path id="icon/maps/place_24px_2" fill-rule="evenodd" clip-rule="evenodd" d="M3.33337 6.00004C3.33337 3.42004 5.42004 1.33337 8.00004 1.33337C10.58 1.33337 12.6667 3.42004 12.6667 6.00004C12.6667 9.50004 8.00004 14.6667 8.00004 14.6667C8.00004 14.6667 3.33337 9.50004 3.33337 6.00004ZM6.33337 6.00004C6.33337 6.92004 7.08004 7.66671 8.00004 7.66671C8.92004 7.66671 9.66671 6.92004 9.66671 6.00004C9.66671 5.08004 8.92004 4.33337 8.00004 4.33337C7.08004 4.33337 6.33337 5.08004 6.33337 6.00004Z" fill="white"/>
</g>
</svg>
