<svg width="30" height="72" viewBox="0 0 30 72" fill="none" xmlns="http://www.w3.org/2000/svg">
<path fill-rule="evenodd" clip-rule="evenodd" d="M0 72.0001C16.6456 71.4703 30 55.5553 30 36C30 16.4448 16.6456 0.529843 0 0V72.0001Z" fill="#368B35"/>
<path d="M7.13745 42.775L8.61245 44.25L16.8625 36L8.61245 27.75L7.13745 29.225L13.9125 36L7.13745 42.775H7.13745Z" fill="white"/>
</svg>
