<svg width="44" height="44" viewBox="0 0 44 44" fill="none" xmlns="http://www.w3.org/2000/svg">
<rect width="44" height="44" fill="white"/>
<path d="M35.3854 15.2068C35.5781 14.5477 35.3854 14.0625 34.4583 14.0625H31.3906C30.6094 14.0625 30.25 14.4791 30.0573 14.9432C30.0573 14.9432 28.4948 18.798 26.2865 21.2977C25.5729 22.0201 25.2448 22.2521 24.8542 22.2521C24.6615 22.2521 24.3646 22.0201 24.3646 21.3609V15.2068C24.3646 14.4158 24.1458 14.0625 23.5 14.0625H18.6771C18.1875 14.0625 17.8958 14.4316 17.8958 14.7744C17.8958 15.5232 19 15.6973 19.1146 17.8066V22.384C19.1146 23.3859 18.9375 23.5705 18.5469 23.5705C17.5052 23.5705 14.974 19.6998 13.474 15.2701C13.1719 14.4105 12.875 14.0625 12.0885 14.0625H9.02083C8.14583 14.0625 7.96875 14.4791 7.96875 14.9432C7.96875 15.7658 9.01042 19.8527 12.8177 25.2527C15.3542 28.9389 18.9271 30.9375 22.1771 30.9375C24.1302 30.9375 24.3698 30.4945 24.3698 29.7299C24.3698 26.2072 24.1927 25.875 25.1719 25.875C25.625 25.875 26.4063 26.107 28.2292 27.8842C30.3125 29.9936 30.6563 30.9375 31.8229 30.9375H34.8906C35.7656 30.9375 36.2083 30.4945 35.9531 29.6191C35.3698 27.7787 31.4271 23.9924 31.25 23.7393C30.7969 23.1486 30.9271 22.885 31.25 22.3576C31.2552 22.3523 35 17.0156 35.3854 15.2068Z" fill="#497ECD"/>
</svg>
